########################################################################################################################
### input: updated_fe.traj                                                                                           ###
########################################################################################################################
+----------------------------------------------------------------------------------------------------------------------+
+                                               Trajectory File Overview                                               +
+--+---------+-----------+------+--------------+------------+-------------+--------------------+--------------------+--+
|  |  img #  |  formula  |  N   |     calc     |   energy   |  ||force||  | cell lengths       | cell angles        |  |
+==+=========+===========+======+==============+============+=============+====================+====================+==+
|  |    0    |  Fe1950   | 1950 | lennardjones | -95.513785 | 0.73559502  | [28.7, 28.7, 28.7] | [90.0, 90.0, 90.0] |  |
+--+---------+-----------+------+--------------+------------+-------------+--------------------+--------------------+--+
########################################################################################################################
### Requested img number: 0                                                                                          ###
########################################################################################################################
###############                                           CELL                                           ###############
########################################################################################################################
###############              28.70000,    0.00000,    0.00000  |  a = 28.7, alpha =       90             ###############
###############               0.00000,   28.70000,    0.00000  |  b = 28.7,  beta =       90             ###############
###############               0.00000,    0.00000,   28.70000  |  c = 28.7, gamma =       90             ###############
########################################################################################################################

