    index images  ERMSE-TEST  FRSME-TEST  ERMSE-TRAIN FRMSE-TRAIN        index  images  ERMSE-TEST  FRSME-TEST      ERMSE-TRAIN FRMSE-TRAIN 
    11  1254          0.046   0.4167      0.0048       0.0292                  1   1219       0.0634      0.6816           0.0041   0.0332  
    8   2865          0.0162  0.2223      0.0057       0.0319                  12  1845       0.0186      0.0582           0.0058   0.0403  
    7   4011          0.0082  0.1281      0.0058       0.0318                  10  2668       0.0127      0.0354           0.0052   0.039   
    5   5013          0.0069  0.0932      0.0051       0.0307                  9   3236       0.0128      0.0416           0.0053   0.0396  
    13  10026         0.0066  0.0781      0.0067       0.0315                  6   3667       0.0132      0.0536           0.0059   0.0417  
    4   20051         0.0064  0.0326      0.0064       0.0326                  2   3832       0.0125      0.0323           0.0053   0.0394  
                                                                               3   4900       0.0133      0.0322           0.0048   0.0368  
